[
    {
      "_id": 111,
      "Sendername": "Sushma Rani reddy Aleti",
      "Transaction_amount": 1000,
      "Transaction_type": "NEFT"
    },
    {
      "_id": 222,
      "Sendername": "Sowmya Reddy Kumbham",
      "Transaction_amount": 2000,
      "Transaction_type": "IMPS"  
    },
    {
      "_id": 333,
      "Sendername": "Bhavani Pathuri",
      "Transaction_amount": 3000,
      "Transaction_type": "RTGS"  
    },
    {
      "_id": 444,
      "Sendername": "Sharadruthi Beerkuri",
      "Transaction_amount": 4000,
       "Transaction_type": "NEFT"  
    }
    ]
    